eval	query_LHS_named	query_RHS_named	acc	pval	card_E_xo	card_E_ox	card_E_xx	card_E_oo
1	(dct:subject dbc:Films_directed_by_Wim_Wenders) 	(dbo:director dbr:Wim_Wenders) 	1.000000	0.000000	0	0	11	678
1	(dct:subject dbc:20th_Century_Fox_films) 	(dbo:distributor dbr:20th_Century_Fox) 	0.961538	0.000000	0	1	25	663
1	(dct:subject dbc:Columbia_Pictures_films) 	(dbo:distributor dbr:Columbia_Pictures) 	0.933333	0.000000	1	1	28	659
0	(dct:subject dbc:Films_directed_by_Wim_Wenders) 	(dbo:editing dbr:Peter_Przygodda) 	0.909091	0.000000	1	0	10	678
1	(dct:subject dbc:Metro-Goldwyn-Mayer_films) 	(dbo:distributor dbr:Metro-Goldwyn-Mayer) 	0.882353	0.000000	0	2	15	672
1	(dct:subject dbc:Paramount_Pictures_films) 	(dbo:distributor dbr:Paramount_Pictures) 	0.774194	0.000000	4	3	24	658
1	(dct:subject dbc:United_Artists_films) 	(dbo:distributor dbr:United_Artists) 	0.687500	0.000000	1	4	11	673
1	(dct:subject dbc:New_Line_Cinema_films) 	(dbo:distributor dbr:New_Line_Cinema) 	0.625000	0.000000	6	0	10	673
1	(dct:subject dbc:Warner_Bros._films) 	(dbo:distributor dbr:Warner_Bros.) 	0.596154	0.000000	19	2	31	637
0	(dct:subject dbc:American_musical_comedy_films) 	(dbo:starring dbr:Bob_Hope) 	0.538462	0.000000	6	0	7	676
0	(dct:subject dbc:American_musical_comedy_films) 	(dbo:starring dbr:Bing_Crosby) 	0.538462	0.000000	6	0	7	676
1	(dct:subject dbc:Tamil-language_films) 	(dbo:language dbr:Tamil_language) 	0.500000	0.000000	7	1	8	673
0	(dct:subject dbc:German_drama_films) 	(dbo:director dbr:Wim_Wenders) 	0.500000	0.000000	3	4	7	675
