eval	query_LHS_named	query_RHS_named	acc	pval	card_E_xo	card_E_ox	card_E_xx	card_E_oo
1	(dct:subject dbc:Meizu) 	(dbo:manufacturer dbr:Meizu) 	1	0	0	0	22	576
1	(dct:subject dbc:Meizu) 	(dbo:manufacturer dbr:Meizu)  & (dbp:type dbr:Smartphone) 	0.954545	0	1	0	21	576
1	(dct:subject dbc:Microsoft_hardware) 	(dbo:manufacturer dbr:Microsoft_Mobile) 	0.928571	0	1	0	13	584
1	(dct:subject dbc:Samsung_Galaxy_Note_mobile_phones) 	(dbp:series dbr:Samsung_Galaxy_Note_series) 	0.875	0	1	0	7	590
1	(dct:subject dbc:Acer_mobile_phones) 	(dbo:manufacturer dbr:Acer_Inc.) 	0.875	0	1	0	7	590
1	(dct:subject dbc:Samsung_Galaxy_Note_mobile_phones) 	(dbp:series dbr:Samsung_Galaxy_Note_series)  & (dbo:manufacturer dbr:Samsung_Electronics) 	0.875	0	1	0	7	590
1	(dct:subject dbc:Palm_mobile_phones) 	(dbo:manufacturer dbr:Palm,_Inc.) 	0.857143	0	0	1	6	591
1	(dct:subject dbc:Meizu) 	(dbp:type dbr:Slate_phone)  & (dbo:manufacturer dbr:Meizu) 	0.818182	0	4	0	18	576
1	(dct:subject dbc:Nokia_mobile_phones) 	(dbo:manufacturer dbr:Nokia) 	0.816514	0	16	4	89	489
1	(dct:subject dbc:Palm_OS_devices) 	(dbo:operatingSystem dbr:Palm_OS) 	0.777778	0	1	1	7	589
1	(dct:subject dbc:Samsung_Galaxy_Note_mobile_phones) 	(dbp:type dbr:Phablet)  & (dbo:manufacturer dbr:Samsung_Electronics) 	0.777778	0	1	1	7	589
1	(dct:subject dbc:Meizu) 	(dbp:series dbr:Meizu) 	0.772727	0	5	0	17	576
1	(dct:subject dbc:LG_Electronics_mobile_phones) 	(dbo:manufacturer dbr:LG_Electronics) 	0.75	0	5	0	15	578
0	(dct:subject dbc:MeeGo_devices) 	(dbo:operatingSystem dbr:Sailfish_OS) 	0.727273	0	3	0	8	587
1	(dct:subject dbc:Samsung_mobile_phones) 	(dbo:manufacturer dbr:Samsung_Electronics) 	0.679012	0	25	1	55	517
1	(dct:subject dbc:Android_(operating_system)_devices) 	(dbo:operatingSystem dbr:Android_(operating_system))  & (rdf:type dbo:Device) 	0.673077	0	66	19	175	338
1	(dct:subject dbc:Huawei_mobile_phones) 	(dbo:manufacturer dbr:Huawei) 	0.666667	0	0	3	6	589
1	(dct:subject dbc:Samsung_Galaxy) 	(dbo:operatingSystem dbr:Android_(operating_system))  & (dbo:manufacturer dbr:Samsung_Electronics) 	0.66129	0	18	3	41	536
1	(dct:subject dbc:Sony_mobile_phones) 	(dbp:type dbr:Smartphone)  & (dbo:manufacturer dbr:Sony_Mobile_Communications) 	0.657895	0	8	5	25	560
1	(dct:subject dbc:HTC_mobile_phones) 	(dbo:manufacturer dbr:HTC_Corporation) 	0.585366	0	15	2	24	557
1	(dct:subject dbc:Xiaomi) 	(dbo:manufacturer dbr:Xiaomi) 	0.583333	0	3	2	7	586
1	(dct:subject dbc:Mobile_operating_systems) 	(rdf:type dbo:Software)  & (rdf:type dbo:Work) 	0.580645	0	4	9	18	567
1	(dct:subject dbc:Motorola_mobile_phones) 	(dbo:manufacturer dbr:Motorola) 	0.52	0	12	0	13	573
0	(dct:subject dbc:ARM_operating_systems) 	(rdf:type dbo:Work) 	0.5	0	1	14	15	568
