eval	query_LHS_named	query_RHS_named	acc	supp
1	(University_of_Chicago_alumni)	(dbo:almaMater dbr:University_of_Chicago), (dbo:award dbr:Turing_Award), (a dbo:Agent), (a dbo:Person), (a dbo:Scientist)	1	4.62
1	(Massachusetts_Institute_of_Technology_alumni)	(dbo:almaMater dbr:Massachusetts_Institute_of_Technology), (a dbo:Agent), (a dbo:Person), (a dbo:Scientist)	1	6.15
0	(Members_of_the_Israel_Academy_of_Sciences_and_Humanities)	(dbo:award dbr:Israel_Prize), (dbo:award dbr:Turing_Award), (a dbo:Agent), (a dbo:Person), (a dbo:Scientist)	1	4.62
1	(National_Medal_of_Science_laureates)	(dbo:award dbr:National_Medal_of_Science), (a dbo:Agent), (a dbo:Person), (a dbo:Scientist)	1	10.77
1	(University_of_Michigan_alumni)	(dbo:almaMater dbr:University_of_Michigan), (dbo:award dbr:Turing_Award), (a dbo:Agent), (a dbo:Person), (a dbo:Scientist)	1	6.15
1	(Turing_Award_laureates)	(a dbo:Person)	0.985	98.46
1	(Turing_Award_laureates)	(a dbo:Agent), (a dbo:Person)	0.969	96.92
1	(Turing_Award_laureates)	(a dbo:Agent), (a dbo:Person)	0.952	92.31
1	(Turing_Award_laureates)	(a dbo:Agent), (a dbo:Person), (a dbo:Scientist)	0.923	92.31
1	(Harvard_University_alumni)	(dbo:almaMater dbr:Harvard_University), (a dbo:Agent), (a dbo:Person), (a dbo:Scientist)	0.875	10.77
1	(National_Medal_of_Technology_recipients)	(dbo:award dbr:National_Medal_of_Technology), (dbo:award dbr:Turing_Award), (a dbo:Agent), (a dbo:Person)	0.857	9.23
1	(California_Institute_of_Technology_alumni)	(dbo:almaMater dbr:California_Institute_of_Technology), (dbo:award dbr:Turing_Award), (a dbo:Agent), (a dbo:Person), (a dbo:Scientist)	0.833	7.69
1	(Turing_Award_laureates)	(a dbo:Agent), (a dbo:Person), (a dbo:Scientist)	0.8	73.85
1	(University_of_California,_Berkeley_faculty)	(dbo:field dbr:Computer_Science), (dbp:workInstitution dbr:University_of_California,_Berkeley), (a dbo:Agent), (a dbo:Person), (a dbo:Scientist)	0.8	6.15
1	(Turing_Award_laureates)	(dbo:award dbr:Turing_Award), (a dbo:Agent), (a dbo:Person)	0.769	76.92
1	(Digital_Equipment_Corporation_people)	(dbp:workInstitution dbr:Digital_Equipment_Corporation), (a dbo:Agent), (a dbo:Person), (a dbo:Scientist)	0.75	4.62
1	(Harvard_University_alumni)	(dbo:almaMater dbr:Harvard_University), (dbo:award dbr:Turing_Award), (a dbo:Agent), (a dbo:Person), (a dbo:Scientist)	0.75	9.23
1	(Massachusetts_Institute_of_Technology_alumni)	(dbo:almaMater dbr:Massachusetts_Institute_of_Technology), (dbo:award dbr:Turing_Award), (a dbo:Agent), (a dbo:Person), (a dbo:Scientist)	0.75	4.62
0	(American_atheists)	(dbo:award dbr:IJCAI_Award_for_Research_Excellence), (dbo:award dbr:Turing_Award), (dbo:field dbr:Computer_science), (a dbo:Agent), (a dbo:Person), (a dbo:Scientist)	0.75	4.62
1	(Turing_Award_laureates)	(dbo:award dbr:Turing_Award), (a dbo:Agent), (a dbo:Person), (a dbo:Scientist)	0.738	73.85
1	(National_Medal_of_Science_laureates)	(dbo:award dbr:National_Medal_of_Science), (dbo:award dbr:Turing_Award), (a dbo:Agent), (a dbo:Person), (a dbo:Scientist)	0.714	7.69
1	(Stanford_University_alumni)	(dbo:almaMater dbr:Stanford_University), (dbo:award dbr:Turing_Award), (a dbo:Agent), (a dbo:Person), (a dbo:Scientist)	0.714	7.69
0	(Modern_cryptographers)	(dbo:award dbr:Turing_Award), (dbo:field dbr:Cryptography), (a dbo:Agent), (a dbo:Person), (a dbo:Scientist)	0.714	7.69
0	(National_Medal_of_Technology_recipients)	(dbo:award dbr:Computer_History_Museum), (dbo:award dbr:National_Medal_of_Technology), (dbo:award dbr:Turing_Award), (a dbo:Agent), (a dbo:Person)	0.714	7.69
1	(Draper_Prize_winners)	(dbo:award dbr:Charles_Stark_Draper_Prize), (a dbo:Agent), (a dbo:Person)	0.667	6.15
1	(California_Institute_of_Technology_alumni)	(dbo:almaMater dbr:California_Institute_of_Technology), (dbo:award dbr:Turing_Award), (a dbo:Agent), (a dbo:Person), (a dbo:Scientist)	0.667	6.15
1	(International_Association_for_Cryptologic_Research_fellows)	(dbo:award dbr:Turing_Award), (dbo:field dbr:Cryptography), (a dbo:Agent), (a dbo:Person), (a dbo:Scientist)	0.667	9.23
0	(British_computer_scientists)	(dbo:award dbr:Fellow_of_the_Royal_Society), (a dbo:Agent), (a dbo:Person), (a dbo:Scientist)	0.667	6.15
1	(Fellows_of_the_British_Computer_Society)	(dbo:award dbr:Fellow_of_the_Royal_Society), (a dbo:Agent), (a dbo:Person), (a dbo:Scientist)	0.625	7.69
0	(20th-century_mathematicians)	(dbo:field dbr:Mathematics), (a dbo:Agent), (a dbo:Person), (a dbo:Scientist)	0.6	4.62
0	(Artificial_intelligence_researchers)	(dbo:award dbr:IJCAI_Award_for_Research_Excellence), (dbo:award dbr:Turing_Award), (a dbo:Agent), (a dbo:Person), (a dbo:Scientist)	0.6	4.62
0	(IBM_Fellows)	(dbo:award dbr:Computer_History_Museum), (dbp:workInstitution dbr:IBM), (a dbo:Agent), (a dbo:Person), (a dbo:Scientist)	0.6	4.62
0	(Public-key_cryptographers)	(dbo:award dbr:Paris_Kanellakis_Award), (dbo:award dbr:Turing_Award), (dbo:field dbr:Cryptography), (a dbo:Agent), (a dbo:Person), (a dbo:Scientist)	0.6	4.62
0	(20th-century_mathematicians)	(dbo:award dbr:IEEE_Emanuel_R._Piore_Award), (dbo:award dbr:Turing_Award), (a dbo:Agent), (a dbo:Person), (a dbo:Scientist)	0.6	4.62
0	(Public-key_cryptographers)	(dbo:award dbr:Marconi_Prize), (dbo:award dbr:Turing_Award), (dbo:birthPlace dbr:New_York_City), (dbo:field dbr:Cryptography), (a dbo:Agent), (a dbo:Person), (a dbo:Scientist)	0.6	4.62
1	(University_of_California,_Berkeley_faculty)	(dbo:award dbr:Turing_Award), (dbo:field dbr:Computer_Science), (dbp:workInstitution dbr:University_of_California,_Berkeley), (a dbo:Agent), (a dbo:Person), (a dbo:Scientist)	0.6	4.62
1	(Stanford_University_School_of_Engineering_faculty)	(dbp:workInstitution dbr:Stanford_University), (a dbo:Agent), (a dbo:Person), (a dbo:Scientist)	0.571	6.15
1	(National_Medal_of_Technology_recipients)	(dbo:award dbr:National_Medal_of_Technology), (dbo:award dbr:Turing_Award), (a dbo:Agent), (a dbo:Person)	0.571	6.15
1	(National_Medal_of_Science_laureates)	(dbo:award dbr:National_Medal_of_Science), (dbo:award dbr:Turing_Award), (a dbo:Agent), (a dbo:Person), (a dbo:Scientist)	0.571	6.15
1	(Stanford_University_alumni)	(dbo:almaMater dbr:Stanford_University), (dbo:award dbr:Turing_Award), (a dbo:Agent), (a dbo:Person), (a dbo:Scientist)	0.571	6.15
1	(Carnegie_Mellon_University_faculty)	(dbo:field dbr:Computer_Science), (dbp:workInstitution dbr:Carnegie_Mellon_University), (a dbo:Agent), (a dbo:Person), (a dbo:Scientist)	0.571	6.15
0	(National_Medal_of_Technology_recipients)	(dbo:award dbr:Japan_Prize), (dbo:award dbr:National_Medal_of_Technology), (dbo:award dbr:Turing_Award), (a dbo:Agent), (a dbo:Person)	0.571	6.15
0	(American_computer_scientists)	(a dbo:Agent), (a dbo:Person)	0.568	32.31
0	(Fellows_of_the_Association_for_Computing_Machinery)	(dbo:award dbr:Turing_Award), (a dbo:Agent), (a dbo:Person)	0.556	30.77
0	(American_computer_scientists)	(dbo:award dbr:Turing_Award), (a dbo:Agent), (a dbo:Person), (a dbo:Scientist)	0.541	30.77
0	(American_computer_scientists)	(a dbo:Agent), (a dbo:Person), (a dbo:Scientist)	0.541	30.77
0	(Fellows_of_the_Association_for_Computing_Machinery)	(dbo:award dbr:Turing_Award), (a dbo:Agent), (a dbo:Person), (a dbo:Scientist)	0.528	29.23
0	(American_computer_scientists)	(dbo:award dbr:Turing_Award), (a dbo:Agent), (a dbo:Person)	0.514	29.23
1	(Living_people)	(a dbo:Agent), (a dbo:Person)	0.5	32.31
0	(Massachusetts_Institute_of_Technology_faculty)	(dbo:award dbr:Turing_Award), (dbo:birthPlace dbr:New_York_City), (a dbo:Agent), (a dbo:Person)	0.5	7.69
0	(British_computer_scientists)	(dbo:award dbr:Fellow_of_the_Royal_Society), (dbo:field dbr:Computer_Science), (a dbo:Agent), (a dbo:Person), (a dbo:Scientist)	0.5	4.62
0	(Harvard_University_alumni)	(dbo:almaMater dbr:Harvard_University), (dbo:award dbr:Computer_History_Museum), (a dbo:Agent), (a dbo:Person), (a dbo:Scientist)	0.5	6.15
1	(Massachusetts_Institute_of_Technology_faculty)	(dbp:workInstitution dbr:Massachusetts_Institute_of_Technology), (a dbo:Agent), (a dbo:Person), (a dbo:Scientist)	0.5	7.69
0	(20th-century_American_mathematicians)	(dbo:award dbr:National_Medal_of_Science), (dbp:workInstitution dbr:IBM), (a dbo:Agent), (a dbo:Person), (a dbo:Scientist)	0.5	4.62
1	(Fellows_of_the_British_Computer_Society)	(dbo:award dbr:Fellow_of_the_Royal_Society), (dbo:award dbr:Turing_Award), (a dbo:Agent), (a dbo:Person), (a dbo:Scientist)	0.5	6.15
0	(California_Institute_of_Technology_alumni)	(dbo:award dbr:Kyoto_Prize), (dbo:award dbr:Turing_Award), (a dbo:Agent), (a dbo:Person), (a dbo:Scientist)	0.5	4.62
1	(Living_people)	(dbo:award dbr:Turing_Award), (a dbo:Agent), (a dbo:Person)	0.5	32.31
